; Engine configuration file.
; It's best edited using the editor UI and not directly,
; since the parameters that go here are not all obvious.
;
; Format:
;   [section] ; section goes between []
;   param=value ; assign values to parameters

config_version=4

_global_script_classes=[  ]
_global_script_class_icons={

}

[application]

config/name="Last Pixel Standing"
run/main_scene="res://UI/MainMenu.tscn"
config/icon="res://icon.png"

[autoload]

Global="*res://Global.gd"

[display]

window/size/width=640
window/size/height=480
window/size/test_width=1024
window/size/test_height=768
window/stretch/mode="2d"
window/stretch/aspect="keep"

[gdnative]

singletons=[  ]

[input]

ui_item_1={
"deadzone": 0.5,
"events": [ Object(InputEventKey,"resource_local_to_scene":false,"resource_name":"","device":0,"alt":false,"shift":false,"control":false,"meta":false,"command":false,"pressed":false,"scancode":49,"unicode":0,"echo":false,"script":null)
, Object(InputEventJoypadButton,"resource_local_to_scene":false,"resource_name":"","device":0,"button_index":0,"pressure":0.0,"pressed":false,"script":null)
 ]
}
ui_item_2={
"deadzone": 0.5,
"events": [ Object(InputEventKey,"resource_local_to_scene":false,"resource_name":"","device":0,"alt":false,"shift":false,"control":false,"meta":false,"command":false,"pressed":false,"scancode":50,"unicode":0,"echo":false,"script":null)
, Object(InputEventJoypadButton,"resource_local_to_scene":false,"resource_name":"","device":0,"button_index":2,"pressure":0.0,"pressed":false,"script":null)
 ]
}
ui_cheat_test_map={
"deadzone": 0.5,
"events": [ Object(InputEventKey,"resource_local_to_scene":false,"resource_name":"","device":0,"alt":true,"shift":false,"control":false,"meta":false,"command":false,"pressed":false,"scancode":84,"unicode":0,"echo":false,"script":null)
 ]
}
ui_cheat_god={
"deadzone": 0.5,
"events": [ Object(InputEventKey,"resource_local_to_scene":false,"resource_name":"","device":0,"alt":true,"shift":false,"control":false,"meta":false,"command":false,"pressed":false,"scancode":71,"unicode":0,"echo":false,"script":null)
 ]
}
ui_cheat_more_ammo={
"deadzone": 0.5,
"events": [ Object(InputEventKey,"resource_local_to_scene":false,"resource_name":"","device":0,"alt":true,"shift":false,"control":false,"meta":false,"command":false,"pressed":false,"scancode":65,"unicode":0,"echo":false,"script":null)
 ]
}

[layer_names]

2d_physics/layer_1="World"
2d_physics/layer_2="Player"
2d_physics/layer_3="PlayerHurtbox"
2d_physics/layer_4="EnemyFloorHurtbox"
2d_physics/layer_5="Enemy"
2d_physics/layer_6="EnemyAirHurtbox"
2d_physics/layer_7="SoftCollisions"

[rendering]

environment/default_environment="res://default_env.tres"
