[gd_scene load_steps=7 format=2]

[ext_resource path="res://Maps/BaseMap.tscn" type="PackedScene" id=1]
[ext_resource path="res://Ressources/Traps/Flamethrower_TOP.tscn" type="PackedScene" id=2]
[ext_resource path="res://Ressources/Traps/Peaks.tscn" type="PackedScene" id=3]
[ext_resource path="res://Ressources/Items/Item chest.tscn" type="PackedScene" id=4]
[ext_resource path="res://Characters/Enemies/Priest.tscn" type="PackedScene" id=5]
[ext_resource path="res://Characters/Enemies/Flying Skull.tscn" type="PackedScene" id=6]

[node name="Map_3" instance=ExtResource( 1 )]
position = Vector2( -32, -16 )
map_name = "Tutorial 3"

[node name="Floor" parent="." index="0"]
position = Vector2( -52.757, -30.1469 )
scale = Vector2( 0.806486, 1.5778 )

[node name="TileMap" parent="." index="1"]
tile_data = PoolIntArray( -65538, 13, 0, -65537, 13, 0, -131072, 13, 0, -131071, 13, 0, -131070, 13, 0, -131069, 13, 0, -131068, 13, 0, -131067, 13, 0, -131066, 13, 0, -131065, 13, 0, -131064, 13, 0, -131063, 13, 0, -131062, 13, 0, -131061, 13, 0, -131060, 13, 0, -131059, 13, 0, -131058, 13, 0, -131057, 13, 0, -131056, 13, 0, -131055, 13, 0, -131054, 13, 0, -131053, 13, 0, -131052, 13, 0, -131051, 13, 0, -2, 13, 0, -1, 13, 0, -65536, 13, 0, -65535, 13, 0, -65534, 13, 0, -65533, 13, 0, -65532, 13, 0, -65531, 13, 0, -65530, 13, 0, -65529, 13, 0, -65528, 13, 0, -65527, 13, 0, -65526, 13, 0, -65525, 13, 0, -65524, 13, 0, -65523, 13, 0, -65522, 13, 0, -65521, 13, 0, -65520, 13, 0, -65519, 13, 0, -65518, 13, 0, -65517, 13, 0, -65516, 13, 0, -65515, 13, 0, 65534, 13, 0, 65535, 13, 0, 0, 13, 0, 1, 13, 0, 2, 13, 0, 3, 13, 0, 4, 13, 0, 5, 13, 0, 6, 13, 0, 7, 13, 0, 8, 13, 0, 9, 13, 0, 10, 13, 0, 11, 13, 0, 12, 13, 0, 13, 13, 0, 14, 13, 0, 15, 13, 0, 16, 13, 0, 17, 13, 0, 18, 13, 0, 19, 13, 0, 20, 13, 0, 21, 13, 0, 131070, 13, 0, 131071, 13, 0, 65536, 13, 0, 65537, 0, 0, 65538, 8, 0, 65539, 9, 0, 65540, 9, 0, 65541, 9, 0, 65542, 9, 0, 65543, 8, 0, 65544, 7, 0, 65545, 0, 0, 65546, 10, 0, 65547, 10, 0, 65548, 9, 0, 65549, 9, 0, 65550, 9, 0, 65551, 10, 0, 65552, 8, 0, 65553, 9, 0, 65554, 6, 0, 65555, 13, 0, 65556, 13, 0, 65557, 13, 0, 196606, 13, 0, 196607, 13, 0, 131072, 13, 0, 131073, 1, 0, 131080, 6, 0, 131081, 1, 0, 131090, 6, 0, 131091, 13, 0, 131092, 13, 0, 131093, 13, 0, 262142, 13, 0, 262143, 13, 0, 196608, 13, 0, 196609, 0, 0, 196616, 6, 0, 196617, 0, 0, 196626, 7, 0, 196627, 13, 0, 196628, 13, 0, 196629, 13, 0, 327678, 13, 0, 327679, 13, 0, 262144, 13, 0, 262145, 1, 0, 262148, 11, 0, 262149, 12, 0, 262152, 6, 0, 262153, 1, 0, 262162, 7, 0, 262163, 13, 0, 262164, 13, 0, 262165, 13, 0, 393214, 13, 0, 393215, 13, 0, 327680, 13, 0, 327681, 1, 0, 327684, 7, 0, 327685, 1, 0, 327688, 8, 0, 327689, 8, 0, 327698, 7, 0, 327699, 13, 0, 327700, 13, 0, 327701, 13, 0, 458750, 13, 0, 458751, 13, 0, 393216, 13, 0, 393217, 0, 0, 393220, 7, 0, 393221, 1, 0, 393234, 6, 0, 393235, 13, 0, 393236, 13, 0, 393237, 13, 0, 524286, 13, 0, 524287, 13, 0, 458752, 13, 0, 458753, 0, 0, 458754, 3, 0, 458755, 3, 0, 458756, 5, 0, 458757, 2, 0, 458758, 4, 0, 458759, 3, 0, 458760, 4, 0, 458761, 3, 0, 458762, 4, 0, 458763, 3, 0, 458764, 4, 0, 458765, 4, 0, 458766, 12, 0, 458770, 6, 0, 458771, 13, 0, 458772, 13, 0, 458773, 13, 0, 589822, 13, 0, 589823, 13, 0, 524288, 13, 0, 524289, 1, 0, 524290, 9, 0, 524291, 10, 0, 524292, 10, 0, 524293, 9, 0, 524294, 10, 0, 524295, 8, 0, 524296, 10, 0, 524297, 9, 0, 524298, 10, 0, 524299, 8, 0, 524300, 10, 0, 524301, 9, 0, 524302, 9, 0, 524306, 7, 0, 524307, 13, 0, 524308, 13, 0, 524309, 13, 0, 655358, 13, 0, 655359, 13, 0, 589824, 13, 0, 589825, 1, 0, 589842, 7, 0, 589843, 13, 0, 589844, 13, 0, 589845, 13, 0, 720894, 13, 0, 720895, 13, 0, 655360, 13, 0, 655361, 0, 0, 655365, 11, 0, 655366, 3, 0, 655367, 4, 0, 655368, 3, 0, 655369, 3, 0, 655370, 4, 0, 655371, 4, 0, 655372, 3, 0, 655373, 3, 0, 655374, 3, 0, 655375, 4, 0, 655376, 3, 0, 655377, 3, 0, 655378, 7, 0, 655379, 13, 0, 655380, 13, 0, 655381, 13, 0, 786430, 13, 0, 786431, 13, 0, 720896, 13, 0, 720897, 0, 0, 720901, 8, 0, 720902, 9, 0, 720903, 8, 0, 720904, 10, 0, 720905, 9, 0, 720906, 10, 0, 720907, 8, 0, 720908, 10, 0, 720909, 10, 0, 720910, 9, 0, 720911, 8, 0, 720912, 10, 0, 720913, 8, 0, 720914, 6, 0, 720915, 13, 0, 720916, 13, 0, 720917, 13, 0, 851966, 13, 0, 851967, 13, 0, 786432, 13, 0, 786433, 1, 0, 786450, 6, 0, 786451, 13, 0, 786452, 13, 0, 786453, 13, 0, 917502, 13, 0, 917503, 13, 0, 851968, 13, 0, 851969, 0, 0, 851986, 6, 0, 851987, 13, 0, 851988, 13, 0, 851989, 13, 0, 983038, 13, 0, 983039, 13, 0, 917504, 13, 0, 917505, 1, 0, 917510, 11, 0, 917511, 12, 0, 917522, 7, 0, 917523, 13, 0, 917524, 13, 0, 917525, 13, 0, 1048574, 13, 0, 1048575, 13, 0, 983040, 13, 0, 983041, 1, 0, 983046, 7, 0, 983047, 1, 0, 983058, 6, 0, 983059, 13, 0, 983060, 13, 0, 983061, 13, 0, 1114110, 13, 0, 1114111, 13, 0, 1048576, 13, 0, 1048577, 0, 0, 1048582, 6, 0, 1048583, 0, 0, 1048594, 7, 0, 1048595, 13, 0, 1048596, 13, 0, 1048597, 13, 0, 1179646, 13, 0, 1179647, 13, 0, 1114112, 13, 0, 1114113, 0, 0, 1114118, 7, 0, 1114119, 1, 0, 1114130, 6, 0, 1114131, 13, 0, 1114132, 13, 0, 1114133, 13, 0, 1245182, 13, 0, 1245183, 13, 0, 1179648, 13, 0, 1179649, 2, 0, 1179650, 3, 0, 1179651, 3, 0, 1179652, 3, 0, 1179653, 3, 0, 1179654, 5, 0, 1179655, 2, 0, 1179656, 4, 0, 1179657, 4, 0, 1179658, 3, 0, 1179659, 3, 0, 1179660, 4, 0, 1179661, 4, 0, 1179662, 4, 0, 1179663, 3, 0, 1179664, 3, 0, 1179665, 3, 0, 1179666, 5, 0, 1179667, 13, 0, 1179668, 13, 0, 1179669, 13, 0, 1310718, 13, 0, 1310719, 13, 0, 1245184, 13, 0, 1245185, 13, 0, 1245186, 13, 0, 1245187, 13, 0, 1245188, 13, 0, 1245189, 13, 0, 1245190, 13, 0, 1245191, 13, 0, 1245192, 13, 0, 1245193, 13, 0, 1245194, 13, 0, 1245195, 13, 0, 1245196, 13, 0, 1245197, 13, 0, 1245198, 13, 0, 1245199, 13, 0, 1245200, 13, 0, 1245201, 13, 0, 1245202, 13, 0, 1245203, 13, 0, 1245204, 13, 0, 1245205, 13, 0, 1376254, 13, 0, 1376255, 13, 0, 1310720, 13, 0, 1310721, 13, 0, 1310722, 13, 0, 1310723, 13, 0, 1310724, 13, 0, 1310725, 13, 0, 1310726, 13, 0, 1310727, 13, 0, 1310728, 13, 0, 1310729, 13, 0, 1310730, 13, 0, 1310731, 13, 0, 1310732, 13, 0, 1310733, 13, 0, 1310734, 13, 0, 1310735, 13, 0, 1310736, 13, 0, 1310737, 13, 0, 1310738, 13, 0, 1310739, 13, 0, 1310740, 13, 0, 1310741, 13, 0, 1441790, 13, 0, 1441791, 13, 0, 1376256, 13, 0, 1376257, 13, 0, 1376258, 13, 0, 1376259, 13, 0, 1376260, 13, 0, 1376261, 13, 0, 1376262, 13, 0, 1376263, 13, 0, 1376264, 13, 0, 1376265, 13, 0, 1376266, 13, 0, 1376267, 13, 0, 1376268, 13, 0, 1376269, 13, 0, 1376270, 13, 0, 1376271, 13, 0, 1376272, 13, 0, 1376273, 13, 0, 1376274, 13, 0, 1376275, 13, 0, 1376276, 13, 0, 1376277, 13, 0 )

[node name="TileMap_overlay" parent="." index="2"]
tile_data = PoolIntArray( 65539, 21, 0, 65540, 21, 0, 65541, 16, 0, 65548, 16, 0, 65553, 21, 0, 131074, 15, 0, 196625, 25, 0, 262146, 19, 0, 262159, 15, 0, 458753, 2, 0, 458764, 14, 0, 524294, 22, 0, 524297, 22, 0, 524300, 22, 0, 589841, 25, 0, 655362, 19, 0, 655378, 5, 0, 720904, 17, 0, 720909, 17, 0, 720912, 17, 0, 851970, 14, 0, 851984, 14, 0, 983049, 23, 0, 983051, 15, 0, 1048578, 19, 0, 1048593, 25, 0 )

[node name="Flamethrower_TOP" parent="Traps" index="0" instance=ExtResource( 2 )]
position = Vector2( 276.881, 191.55 )

[node name="Peaks" parent="Traps" index="1" instance=ExtResource( 3 )]
position = Vector2( 225.491, 412.935 )

[node name="Exit" parent="Items" index="0"]
position = Vector2( 484.526, 64.2402 )

[node name="Dynamite" parent="Items" index="1" instance=ExtResource( 4 )]
position = Vector2( 387.302, 115.838 )

[node name="BearTrap" parent="Items" index="2" instance=ExtResource( 4 )]
position = Vector2( 120.407, 503.802 )
weapon_type = "bear_trap"

[node name="Flying Skull" parent="Enemies" index="0" instance=ExtResource( 6 )]
position = Vector2( 97.8096, 211.651 )

[node name="Priest" parent="Enemies" index="1" instance=ExtResource( 5 )]
position = Vector2( 495.183, 521.316 )

[node name="PlayerMarker" parent="." index="6"]
position = Vector2( 528.392, 278.042 )

[node name="CameraLimit" parent="." index="7"]
position = Vector2( 624, 624 )
