[gd_scene load_steps=8 format=2]

[ext_resource path="res://Ressources/Traps/Flamethrower_TOP.tscn" type="PackedScene" id=1]
[ext_resource path="res://Maps/BaseMap.tscn" type="PackedScene" id=2]
[ext_resource path="res://Characters/Enemies/Skeleton.tscn" type="PackedScene" id=3]
[ext_resource path="res://Ressources/Items/Item chest.tscn" type="PackedScene" id=4]
[ext_resource path="res://Ressources/Traps/Peaks.tscn" type="PackedScene" id=5]
[ext_resource path="res://Characters/Enemies/Flying Skull.tscn" type="PackedScene" id=6]
[ext_resource path="res://Ressources/Traps/Trapdoor.tscn" type="PackedScene" id=7]

[node name="Map_8" instance=ExtResource( 2 )]
map_name = "Last resort"

[node name="TileMap" parent="." index="1"]
tile_data = PoolIntArray( 65535, 13, 0, 0, 13, 0, 1, 13, 0, 2, 13, 0, 3, 13, 0, 4, 13, 0, 5, 13, 0, 6, 13, 0, 7, 13, 0, 8, 13, 0, 9, 13, 0, 10, 13, 0, 11, 13, 0, 12, 13, 0, 13, 13, 0, 14, 13, 0, 15, 13, 0, 16, 13, 0, 17, 13, 0, 18, 13, 0, 19, 13, 0, 20, 13, 0, 21, 13, 0, 22, 13, 0, 131071, 13, 0, 65536, 13, 0, 65537, 13, 0, 65538, 13, 0, 65539, 13, 0, 65540, 13, 0, 65541, 13, 0, 65542, 13, 0, 65543, 13, 0, 65544, 13, 0, 65545, 13, 0, 65546, 13, 0, 65547, 13, 0, 65548, 13, 0, 65549, 13, 0, 65550, 13, 0, 65551, 13, 0, 65552, 13, 0, 65553, 13, 0, 65554, 13, 0, 65555, 13, 0, 65556, 13, 0, 65557, 13, 0, 65558, 13, 0, 196607, 13, 0, 131072, 13, 0, 131073, 0, 0, 131074, 9, 0, 131075, 9, 0, 131076, 9, 0, 131077, 9, 0, 131078, 9, 0, 131079, 9, 0, 131080, 9, 0, 131081, 9, 0, 131082, 9, 0, 131083, 9, 0, 131084, 9, 0, 131085, 9, 0, 131086, 9, 0, 131087, 9, 0, 131088, 9, 0, 131089, 9, 0, 131090, 9, 0, 131091, 9, 0, 131092, 7, 0, 131093, 13, 0, 131094, 13, 0, 262143, 13, 0, 196608, 13, 0, 196609, 0, 0, 196628, 7, 0, 196629, 13, 0, 196630, 13, 0, 327679, 13, 0, 262144, 13, 0, 262145, 0, 0, 262164, 7, 0, 262165, 13, 0, 262166, 13, 0, 393215, 13, 0, 327680, 13, 0, 327681, 0, 0, 327700, 7, 0, 327701, 13, 0, 327702, 13, 0, 458751, 13, 0, 393216, 13, 0, 393217, 0, 0, 393236, 7, 0, 393237, 13, 0, 393238, 13, 0, 524287, 13, 0, 458752, 13, 0, 458753, 0, 0, 458772, 7, 0, 458773, 13, 0, 458774, 13, 0, 589823, 13, 0, 524288, 13, 0, 524289, 0, 0, 524308, 7, 0, 524309, 13, 0, 524310, 13, 0, 655359, 13, 0, 589824, 13, 0, 589825, 0, 0, 589844, 7, 0, 589845, 13, 0, 589846, 13, 0, 720895, 13, 0, 655360, 13, 0, 655361, 0, 0, 655380, 7, 0, 655381, 13, 0, 655382, 13, 0, 786431, 13, 0, 720896, 13, 0, 720897, 0, 0, 720916, 7, 0, 720917, 13, 0, 720918, 13, 0, 851967, 13, 0, 786432, 13, 0, 786433, 0, 0, 786452, 7, 0, 786453, 13, 0, 786454, 13, 0, 917503, 13, 0, 851968, 13, 0, 851969, 2, 0, 851970, 3, 0, 851971, 3, 0, 851972, 3, 0, 851973, 3, 0, 851974, 3, 0, 851975, 3, 0, 851976, 3, 0, 851977, 3, 0, 851978, 3, 0, 851979, 3, 0, 851980, 3, 0, 851981, 3, 0, 851982, 3, 0, 851983, 3, 0, 851984, 3, 0, 851985, 3, 0, 851986, 3, 0, 851987, 3, 0, 851988, 5, 0, 851989, 13, 0, 851990, 13, 0, 983039, 13, 0, 917504, 13, 0, 917505, 13, 0, 917506, 13, 0, 917507, 13, 0, 917508, 13, 0, 917509, 13, 0, 917510, 13, 0, 917511, 13, 0, 917512, 13, 0, 917513, 13, 0, 917514, 13, 0, 917515, 13, 0, 917516, 13, 0, 917517, 13, 0, 917518, 13, 0, 917519, 13, 0, 917520, 13, 0, 917521, 13, 0, 917522, 13, 0, 917523, 13, 0, 917524, 13, 0, 917525, 13, 0, 917526, 13, 0, 1048575, 13, 0, 983040, 13, 0, 983041, 13, 0, 983042, 13, 0, 983043, 13, 0, 983044, 13, 0, 983045, 13, 0, 983046, 13, 0, 983047, 13, 0, 983048, 13, 0, 983049, 13, 0, 983050, 13, 0, 983051, 13, 0, 983052, 13, 0, 983053, 13, 0, 983054, 13, 0, 983055, 13, 0, 983056, 13, 0, 983057, 13, 0, 983058, 13, 0, 983059, 13, 0, 983060, 13, 0, 983061, 13, 0, 983062, 13, 0 )

[node name="TileMap_overlay" parent="." index="2"]
tile_data = PoolIntArray( 131075, 17, 0, 131077, 17, 0, 131080, 17, 0, 131082, 16, 0, 131089, 16, 0, 131090, 18, 0, 327682, 19, 0, 327684, 15, 0, 589826, 19, 0, 655373, 14, 0 )

[node name="TileMap_room_items" parent="." index="3"]
cell_size = Vector2( 16, 16 )
tile_data = PoolIntArray( 1310733, 3, 0, 1310734, 3, 0 )

[node name="Flamethrower_TOP" parent="Traps" index="0" instance=ExtResource( 1 )]
position = Vector2( 224, 96 )

[node name="Peaks" parent="Traps" index="1" instance=ExtResource( 5 )]
position = Vector2( 568, 152 )

[node name="Trapdoor" parent="Traps" index="2" instance=ExtResource( 7 )]
position = Vector2( 337, 214 )

[node name="Exit" parent="Items" index="0"]
position = Vector2( 456, 96 )

[node name="Item chest" parent="Items" index="1" instance=ExtResource( 4 )]
position = Vector2( 136, 328 )
weapon_type = "bear_trap"

[node name="Item chest2" parent="Items" index="2" instance=ExtResource( 4 )]
position = Vector2( 368, 320 )

[node name="Item chest3" parent="Items" index="3" instance=ExtResource( 4 )]
position = Vector2( 576, 320 )
weapon_type = "bear_trap"

[node name="Skeleton" parent="Enemies" index="0" instance=ExtResource( 3 )]
position = Vector2( 112, 296 )

[node name="Flying Skull" parent="Enemies" index="1" instance=ExtResource( 6 )]
position = Vector2( 336, 296 )

[node name="Skeleton2" parent="Enemies" index="2" instance=ExtResource( 3 )]
position = Vector2( 544, 296 )

[node name="PlayerMarker" parent="." index="7"]
position = Vector2( 344, 120 )

[node name="CameraLimit" parent="." index="8"]
position = Vector2( 696, 480 )
